^D:\DOCUMENTS\LEARNING\ABOUTCODE\OPENGL\TESTOPENGL\TESTOPENGL\TEST1.CPP
D:\DOCUMENTS\LEARNING\ABOUTCODE\OPENGL\TESTOPENGL\TESTOPENGL\DEBUG\VC140.PDB
D:\DOCUMENTS\LEARNING\ABOUTCODE\OPENGL\TESTOPENGL\TESTOPENGL\DEBUG\VC140.IDB
D:\DOCUMENTS\LEARNING\ABOUTCODE\OPENGL\TESTOPENGL\TESTOPENGL\DEBUG\TEST1.OBJ
^D:\DOCUMENTS\LEARNING\ABOUTCODE\OPENGL\TESTOPENGL\TESTOPENGL\TEST1.CPP|D:\DOCUMENTS\LEARNING\ABOUTCODE\OPENGL\TESTOPENGL\TESTOPENGL\TEST2.CPP
D:\DOCUMENTS\LEARNING\ABOUTCODE\OPENGL\TESTOPENGL\TESTOPENGL\DEBUG\VC140.PDB
D:\DOCUMENTS\LEARNING\ABOUTCODE\OPENGL\TESTOPENGL\TESTOPENGL\DEBUG\VC140.IDB
D:\DOCUMENTS\LEARNING\ABOUTCODE\OPENGL\TESTOPENGL\TESTOPENGL\DEBUG\TEST1.OBJ
^D:\DOCUMENTS\LEARNING\ABOUTCODE\OPENGL\TESTOPENGL\TESTOPENGL\TEST2.CPP
D:\DOCUMENTS\LEARNING\ABOUTCODE\OPENGL\TESTOPENGL\TESTOPENGL\DEBUG\VC140.PDB
D:\DOCUMENTS\LEARNING\ABOUTCODE\OPENGL\TESTOPENGL\TESTOPENGL\DEBUG\VC140.IDB
^D:\DOCUMENTS\LEARNING\ABOUTCODE\OPENGL\TESTOPENGL\TESTOPENGL\TEST3.CPP
D:\DOCUMENTS\LEARNING\ABOUTCODE\OPENGL\TESTOPENGL\TESTOPENGL\DEBUG\VC140.PDB
D:\DOCUMENTS\LEARNING\ABOUTCODE\OPENGL\TESTOPENGL\TESTOPENGL\DEBUG\VC140.IDB
D:\DOCUMENTS\LEARNING\ABOUTCODE\OPENGL\TESTOPENGL\TESTOPENGL\DEBUG\TEST3.OBJ
^D:\DOCUMENTS\LEARNING\ABOUTCODE\OPENGL\TESTOPENGL\TESTOPENGL\SQUARE.CPP
D:\DOCUMENTS\LEARNING\ABOUTCODE\OPENGL\TESTOPENGL\TESTOPENGL\DEBUG\VC140.PDB
D:\DOCUMENTS\LEARNING\ABOUTCODE\OPENGL\TESTOPENGL\TESTOPENGL\DEBUG\VC140.IDB
D:\DOCUMENTS\LEARNING\ABOUTCODE\OPENGL\TESTOPENGL\TESTOPENGL\DEBUG\SQUARE.OBJ
^D:\DOCUMENTS\LEARNING\ABOUTCODE\OPENGL\TESTOPENGL\TESTOPENGL\FRACTAL.CPP
D:\DOCUMENTS\LEARNING\ABOUTCODE\OPENGL\TESTOPENGL\TESTOPENGL\DEBUG\VC140.PDB
D:\DOCUMENTS\LEARNING\ABOUTCODE\OPENGL\TESTOPENGL\TESTOPENGL\DEBUG\VC140.IDB
D:\DOCUMENTS\LEARNING\ABOUTCODE\OPENGL\TESTOPENGL\TESTOPENGL\DEBUG\FRACTAL.OBJ
^D:\DOCUMENTS\LEARNING\ABOUTCODE\OPENGL\TESTOPENGL\TESTOPENGL\SNOWFRACTAL.CPP
D:\DOCUMENTS\LEARNING\ABOUTCODE\OPENGL\TESTOPENGL\TESTOPENGL\DEBUG\VC140.PDB
D:\DOCUMENTS\LEARNING\ABOUTCODE\OPENGL\TESTOPENGL\TESTOPENGL\DEBUG\VC140.IDB
D:\DOCUMENTS\LEARNING\ABOUTCODE\OPENGL\TESTOPENGL\TESTOPENGL\DEBUG\SNOWFRACTAL.OBJ
^D:\DOCUMENTS\LEARNING\ABOUTCODE\OPENGL\TESTOPENGL\TESTOPENGL\FRACTALTETRAHEDRA.CPP|D:\DOCUMENTS\LEARNING\ABOUTCODE\OPENGL\TESTOPENGL\TESTOPENGL\SNOWFRACTAL.CPP|D:\DOCUMENTS\LEARNING\ABOUTCODE\OPENGL\TESTOPENGL\TESTOPENGL\TEST3.CPP
D:\DOCUMENTS\LEARNING\ABOUTCODE\OPENGL\TESTOPENGL\TESTOPENGL\DEBUG\VC140.PDB
D:\DOCUMENTS\LEARNING\ABOUTCODE\OPENGL\TESTOPENGL\TESTOPENGL\DEBUG\VC140.IDB
D:\DOCUMENTS\LEARNING\ABOUTCODE\OPENGL\TESTOPENGL\TESTOPENGL\DEBUG\SNOWFRACTAL.OBJ
D:\DOCUMENTS\LEARNING\ABOUTCODE\OPENGL\TESTOPENGL\TESTOPENGL\DEBUG\TEST3.OBJ
^D:\DOCUMENTS\LEARNING\ABOUTCODE\OPENGL\TESTOPENGL\TESTOPENGL\FRACTALTETRAHEDRA.CPP
D:\DOCUMENTS\LEARNING\ABOUTCODE\OPENGL\TESTOPENGL\TESTOPENGL\DEBUG\VC140.PDB
D:\DOCUMENTS\LEARNING\ABOUTCODE\OPENGL\TESTOPENGL\TESTOPENGL\DEBUG\VC140.IDB
^D:\DOCUMENTS\LEARNING\ABOUTCODE\OPENGL\TESTOPENGL\TESTOPENGL\DOUBLEBUFFER.CPP|D:\DOCUMENTS\LEARNING\ABOUTCODE\OPENGL\TESTOPENGL\TESTOPENGL\FRACTAL.CPP|D:\DOCUMENTS\LEARNING\ABOUTCODE\OPENGL\TESTOPENGL\TESTOPENGL\FRACTALTETRAHEDRA.CPP
D:\DOCUMENTS\LEARNING\ABOUTCODE\OPENGL\TESTOPENGL\TESTOPENGL\DEBUG\VC140.PDB
D:\DOCUMENTS\LEARNING\ABOUTCODE\OPENGL\TESTOPENGL\TESTOPENGL\DEBUG\VC140.IDB
D:\DOCUMENTS\LEARNING\ABOUTCODE\OPENGL\TESTOPENGL\TESTOPENGL\DEBUG\DOUBLEBUFFER.OBJ
D:\DOCUMENTS\LEARNING\ABOUTCODE\OPENGL\TESTOPENGL\TESTOPENGL\DEBUG\FRACTAL.OBJ
D:\DOCUMENTS\LEARNING\ABOUTCODE\OPENGL\TESTOPENGL\TESTOPENGL\DEBUG\FRACTALTETRAHEDRA.OBJ
^D:\DOCUMENTS\LEARNING\ABOUTCODE\OPENGL\TESTOPENGL\TESTOPENGL\DOUBLEBUFFER.CPP
D:\DOCUMENTS\LEARNING\ABOUTCODE\OPENGL\TESTOPENGL\TESTOPENGL\DEBUG\VC140.PDB
D:\DOCUMENTS\LEARNING\ABOUTCODE\OPENGL\TESTOPENGL\TESTOPENGL\DEBUG\VC140.IDB
D:\DOCUMENTS\LEARNING\ABOUTCODE\OPENGL\TESTOPENGL\TESTOPENGL\DEBUG\DOUBLEBUFFER.OBJ
^D:\DOCUMENTS\LEARNING\ABOUTCODE\OPENGL\TESTOPENGL\TESTOPENGL\DOUBLEBUFFER.CPP|D:\DOCUMENTS\LEARNING\ABOUTCODE\OPENGL\TESTOPENGL\TESTOPENGL\FRACTALTETRAHEDRA.CPP
D:\DOCUMENTS\LEARNING\ABOUTCODE\OPENGL\TESTOPENGL\TESTOPENGL\DEBUG\VC140.PDB
D:\DOCUMENTS\LEARNING\ABOUTCODE\OPENGL\TESTOPENGL\TESTOPENGL\DEBUG\VC140.IDB
D:\DOCUMENTS\LEARNING\ABOUTCODE\OPENGL\TESTOPENGL\TESTOPENGL\DEBUG\DOUBLEBUFFER.OBJ
^D:\DOCUMENTS\LEARNING\ABOUTCODE\OPENGL\TESTOPENGL\TESTOPENGL\FRACTAL.CPP|D:\DOCUMENTS\LEARNING\ABOUTCODE\OPENGL\TESTOPENGL\TESTOPENGL\FRACTALTETRAHEDRA.CPP
D:\DOCUMENTS\LEARNING\ABOUTCODE\OPENGL\TESTOPENGL\TESTOPENGL\DEBUG\VC140.PDB
D:\DOCUMENTS\LEARNING\ABOUTCODE\OPENGL\TESTOPENGL\TESTOPENGL\DEBUG\VC140.IDB
D:\DOCUMENTS\LEARNING\ABOUTCODE\OPENGL\TESTOPENGL\TESTOPENGL\DEBUG\FRACTAL.OBJ
D:\DOCUMENTS\LEARNING\ABOUTCODE\OPENGL\TESTOPENGL\TESTOPENGL\DEBUG\FRACTALTETRAHEDRA.OBJ
^D:\DOCUMENTS\LEARNING\ABOUTCODE\OPENGL\TESTOPENGL\TESTOPENGL\DOUBLEBUFFER.CPP|D:\DOCUMENTS\LEARNING\ABOUTCODE\OPENGL\TESTOPENGL\TESTOPENGL\FRACTAL.CPP
D:\DOCUMENTS\LEARNING\ABOUTCODE\OPENGL\TESTOPENGL\TESTOPENGL\DEBUG\VC140.PDB
D:\DOCUMENTS\LEARNING\ABOUTCODE\OPENGL\TESTOPENGL\TESTOPENGL\DEBUG\VC140.IDB
D:\DOCUMENTS\LEARNING\ABOUTCODE\OPENGL\TESTOPENGL\TESTOPENGL\DEBUG\DOUBLEBUFFER.OBJ
D:\DOCUMENTS\LEARNING\ABOUTCODE\OPENGL\TESTOPENGL\TESTOPENGL\DEBUG\FRACTAL.OBJ
^D:\DOCUMENTS\LEARNING\ABOUTCODE\OPENGL\TESTOPENGL\TESTOPENGL\SNOWFRACTAL.CPP|D:\DOCUMENTS\LEARNING\ABOUTCODE\OPENGL\TESTOPENGL\TESTOPENGL\SQUARE.CPP|D:\DOCUMENTS\LEARNING\ABOUTCODE\OPENGL\TESTOPENGL\TESTOPENGL\TEST3.CPP
D:\DOCUMENTS\LEARNING\ABOUTCODE\OPENGL\TESTOPENGL\TESTOPENGL\DEBUG\VC140.PDB
D:\DOCUMENTS\LEARNING\ABOUTCODE\OPENGL\TESTOPENGL\TESTOPENGL\DEBUG\VC140.IDB
D:\DOCUMENTS\LEARNING\ABOUTCODE\OPENGL\TESTOPENGL\TESTOPENGL\DEBUG\SNOWFRACTAL.OBJ
D:\DOCUMENTS\LEARNING\ABOUTCODE\OPENGL\TESTOPENGL\TESTOPENGL\DEBUG\SQUARE.OBJ
D:\DOCUMENTS\LEARNING\ABOUTCODE\OPENGL\TESTOPENGL\TESTOPENGL\DEBUG\TEST3.OBJ
